{
    "$schema": "../node_modules/@angular-devkit/schematics/collection-schema.json",
    "schematics": {
        "react-component": {
            "aliases": [
                "rc"
            ],
            "description": "A simple schematic for generate React Component.",
            "factory": "./schematic/index#reactComponentSample",
            "schema": "./schematic/schema.json"
        }
    }
}